{
  "forms": [
    {
      "confirmationNumber": "AB6K918",
      "firstName": "Ailina",
      "lastName": "Abazi",
      "dateOfBirth": "1964/07/02",
      "phoneNumber": "208-290-6147",
      "email": "awenderotto9@constantcontact.com",
      "homeAddress": "97509, Hanover Way",
      "cityOrTown": "Vancouver",
      "postalCode": "N1Q3I9",
      "provinceTerritory": "British Columbia",
      "hasAdditionalTravellers": "No",
      "additionalTravellers": [],
      "nameOfAirportOrBorderCrossing": "CF3338",
      "nameOfBorderCrossing": "Kiribati",
      "arrivalDate": "2020/05/17",
      "arrivalCityOrTown": "Richmond",
      "arrivalCountry": "Botswana",
      "additionalCitiesAndCountries": [
        {
          "cityOrTown": "richmond",
          "country": "Egypt"
        },
        {
          "cityOrTown": "richmond",
          "country": "Egypt"
        }
      ],
      "hasPlaceToStayForQuarantine": "Yes",
      "quarantineLocation": {
        "address": "56 Oxford Court",
        "cityOrTown": "surrey",
        "provinceTerritory": "Newfoundland and Labrador",
        "postalCode": "K9D4K8",
        "phoneNumber": "119 659 1232",
        "typeOfPlace": "Other",
        "howToGetToPlace": "Private vehicle",
        "doesVulnerablePersonLiveThere": "No",
        "otherPeopleResiding": "No"
      },
      "isAbleToMakeNecessaryArrangements": "Yes",
      "doesConfirmToProvideInformationOnBehalfOfListedTravellers": true,
      "doesConfirmToCall811": true,
      "doesAttestInformationIsAccurate": true
    },
    {
      "confirmationNumber": "ABJ1XRU",
      "firstName": "Aimee",
      "lastName": "Abbati",
      "dateOfBirth": "1978/10/17",
      "phoneNumber": "(243) 7135339",
      "email": "gkingettep@bbc.co.uk",
      "homeAddress": "98261, Canary Terrace",
      "cityOrTown": "Peachland",
      "postalCode": "W1H8J2",
      "provinceTerritory": "British Columbia",
      "hasAdditionalTravellers": "Yes",
      "additionalTravellers": [
        {
          "firstName": "Dode",
          "lastName": "Treswell",
          "dateOfBirth": "2010/06/14"
        },
        {
          "firstName": "Dode",
          "lastName": "Treswell",
          "dateOfBirth": "2010/06/14"
        },
        {
          "firstName": "Dode",
          "lastName": "Treswell",
          "dateOfBirth": "2010/06/14"
        }
      ],
      "nameOfAirportOrBorderCrossing": "LO5067",
      "nameOfBorderCrossing": "Slovakia",
      "arrivalDate": "2020/05/17",
      "arrivalCityOrTown": "Surrey",
      "arrivalCountry": "Cambodia",
      "additionalCitiesAndCountries": [
        {
          "cityOrTown": "vancouver",
          "country": "Burundi"
        },
        {
          "cityOrTown": "vancouver",
          "country": "Burundi"
        },
        {
          "cityOrTown": "vancouver",
          "country": "Burundi"
        }
      ],
      "hasPlaceToStayForQuarantine": "No",
      "quarantineLocation": {
        "address": "",
        "cityOrTown": "",
        "provinceTerritory": "",
        "postalCode": "",
        "phoneNumber": "",
        "typeOfPlace": "",
        "howToGetToPlace": "",
        "doesVulnerablePersonLiveThere": "",
        "otherPeopleResiding": "No"
      },
      "isAbleToMakeNecessaryArrangements": "Yes",
      "doesConfirmToProvideInformationOnBehalfOfListedTravellers": true,
      "doesConfirmToCall811": true,
      "doesAttestInformationIsAccurate": true
    },
    {
      "confirmationNumber": "AB92X86",
      "firstName": "Ainslee",
      "lastName": "Abels",
      "dateOfBirth": "1985/09/25",
      "phoneNumber": "(135) 3321294",
      "email": "rkobera7i@shutterfly.com",
      "homeAddress": "6 - Mallard Place",
      "cityOrTown": "CHILLIWACK",
      "postalCode": "S1Q2B9",
      "provinceTerritory": "British Columbia",
      "hasAdditionalTravellers": "Yes",
      "additionalTravellers": [
        {
          "firstName": "Candie",
          "lastName": "Logsdail",
          "dateOfBirth": "1992/10/06"
        },
        {
          "firstName": "Candie",
          "lastName": "Logsdail",
          "dateOfBirth": "1992/10/06"
        },
        {
          "firstName": "Candie",
          "lastName": "Logsdail",
          "dateOfBirth": "1992/10/06"
        },
        {
          "firstName": "Candie",
          "lastName": "Logsdail",
          "dateOfBirth": "1992/10/06"
        },
        {
          "firstName": "Candie",
          "lastName": "Logsdail",
          "dateOfBirth": "1992/10/06"
        }
      ],
      "nameOfAirportOrBorderCrossing": "ZH4854",
      "nameOfBorderCrossing": "San Marino",
      "arrivalDate": "2020/05/17",
      "arrivalCityOrTown": "Vancouver",
      "arrivalCountry": "Benin",
      "additionalCitiesAndCountries": [],
      "hasPlaceToStayForQuarantine": "Yes",
      "quarantineLocation": {
        "address": "7 Bunting Hill",
        "cityOrTown": "Port Coquitlam",
        "provinceTerritory": "Other",
        "postalCode": "I8Y6P7",
        "phoneNumber": "640 478 5253",
        "typeOfPlace": "Commercial (e.g. hotel)",
        "howToGetToPlace": "Taxi or rideshare",
        "doesVulnerablePersonLiveThere": "No",
        "otherPeopleResiding": "No"
      },
      "isAbleToMakeNecessaryArrangements": "Yes",
      "doesConfirmToProvideInformationOnBehalfOfListedTravellers": true,
      "doesConfirmToCall811": true,
      "doesAttestInformationIsAccurate": true
    },
    {
      "confirmationNumber": "ABB73I3",
      "firstName": "Al",
      "lastName": "Abels",
      "dateOfBirth": "1999/09/29",
      "phoneNumber": "214-148-5135",
      "email": "wkestennh@un.org",
      "homeAddress": "0983, Melby Terrace",
      "cityOrTown": "SURREY",
      "postalCode": "R4P5F3",
      "provinceTerritory": "British Columbia",
      "hasAdditionalTravellers": "No",
      "additionalTravellers": [],
      "nameOfAirportOrBorderCrossing": "KX8177",
      "nameOfBorderCrossing": "Spain",
      "arrivalDate": "2020/05/17",
      "arrivalCityOrTown": "VANCOUVER",
      "arrivalCountry": "Solomon Islands",
      "additionalCitiesAndCountries": [
        {
          "cityOrTown": "Parksville",
          "country": "France"
        }
      ],
      "hasPlaceToStayForQuarantine": "Yes",
      "quarantineLocation": {
        "address": "2 Cherokee Parkway",
        "cityOrTown": "Richmond",
        "provinceTerritory": "Manitoba",
        "postalCode": "W6E5V4",
        "phoneNumber": "835 825 7896",
        "typeOfPlace": "Commercial (e.g. hotel)",
        "howToGetToPlace": "Taxi or rideshare",
        "doesVulnerablePersonLiveThere": "No",
        "otherPeopleResiding": "No"
      },
      "isAbleToMakeNecessaryArrangements": "Yes",
      "doesConfirmToProvideInformationOnBehalfOfListedTravellers": true,
      "doesConfirmToCall811": true,
      "doesAttestInformationIsAccurate": true
    },
    {
      "confirmationNumber": "ABA767B",
      "firstName": "Alaine",
      "lastName": "Ablewhite",
      "dateOfBirth": "1955/07/01",
      "phoneNumber": "855-405-5427",
      "email": "onazarethj1@bandcamp.com",
      "homeAddress": "143 Shopko Park",
      "cityOrTown": "Courtenay",
      "postalCode": "Z4G1U5",
      "provinceTerritory": "British Columbia",
      "hasAdditionalTravellers": "Yes",
      "additionalTravellers": [
        {
          "firstName": "Patrica",
          "lastName": "Higgonet",
          "dateOfBirth": "1993/12/04"
        },
        {
          "firstName": "Patrica",
          "lastName": "Higgonet",
          "dateOfBirth": "1993/12/04"
        },
        {
          "firstName": "Patrica",
          "lastName": "Higgonet",
          "dateOfBirth": "1993/12/04"
        },
        {
          "firstName": "Patrica",
          "lastName": "Higgonet",
          "dateOfBirth": "1993/12/04"
        }
      ],
      "nameOfAirportOrBorderCrossing": "UW8303",
      "nameOfBorderCrossing": "Comoros",
      "arrivalDate": "2020/05/17",
      "arrivalCityOrTown": "Langley",
      "arrivalCountry": "Greece",
      "additionalCitiesAndCountries": [
        {
          "cityOrTown": "Surrey",
          "country": "The Gambia"
        },
        {
          "cityOrTown": "Surrey",
          "country": "The Gambia"
        },
        {
          "cityOrTown": "Surrey",
          "country": "The Gambia"
        },
        {
          "cityOrTown": "Surrey",
          "country": "The Gambia"
        }
      ],
      "hasPlaceToStayForQuarantine": "No",
      "quarantineLocation": {
        "address": "",
        "cityOrTown": "",
        "provinceTerritory": "",
        "postalCode": "",
        "phoneNumber": "",
        "typeOfPlace": "",
        "howToGetToPlace": "",
        "doesVulnerablePersonLiveThere": "",
        "otherPeopleResiding": "No"
      },
      "isAbleToMakeNecessaryArrangements": "Yes",
      "doesConfirmToProvideInformationOnBehalfOfListedTravellers": true,
      "doesConfirmToCall811": true,
      "doesAttestInformationIsAccurate": true
    },
    {
      "confirmationNumber": "AB837L0",
      "firstName": "Alaric",
      "lastName": "Addeycott",
      "dateOfBirth": "2003/12/07",
      "phoneNumber": "488-362-6563",
      "email": "jvasyatkinqh@360.cn",
      "homeAddress": "2594 Hayes Alley",
      "cityOrTown": "Richmond",
      "postalCode": "X8V5N3",
      "provinceTerritory": "British Columbia",
      "hasAdditionalTravellers": "Yes",
      "additionalTravellers": [
        {
          "firstName": "Mischa",
          "lastName": "Farrar",
          "dateOfBirth": "1954/09/03"
        },
        {
          "firstName": "Mischa",
          "lastName": "Farrar",
          "dateOfBirth": "1954/09/03"
        },
        {
          "firstName": "Mischa",
          "lastName": "Farrar",
          "dateOfBirth": "1954/09/03"
        }
      ],
      "nameOfAirportOrBorderCrossing": "JA9403",
      "nameOfBorderCrossing": "Equatorial Guinea",
      "arrivalDate": "2020/05/17",
      "arrivalCityOrTown": "Surrey",
      "arrivalCountry": "Ecuador",
      "additionalCitiesAndCountries": [
        {
          "cityOrTown": "langley",
          "country": "Sri Lanka"
        },
        {
          "cityOrTown": "langley",
          "country": "Sri Lanka"
        },
        {
          "cityOrTown": "langley",
          "country": "Sri Lanka"
        }
      ],
      "hasPlaceToStayForQuarantine": "No",
      "quarantineLocation": {
        "address": "",
        "cityOrTown": "",
        "provinceTerritory": "",
        "postalCode": "",
        "phoneNumber": "",
        "typeOfPlace": "",
        "howToGetToPlace": "",
        "doesVulnerablePersonLiveThere": "",
        "otherPeopleResiding": "No"
      },
      "isAbleToMakeNecessaryArrangements": "Yes",
      "doesConfirmToProvideInformationOnBehalfOfListedTravellers": true,
      "doesConfirmToCall811": true,
      "doesAttestInformationIsAccurate": true
    },
    {
      "confirmationNumber": "AB3687T",
      "firstName": "Alayne",
      "lastName": "Adlem",
      "dateOfBirth": "1990/07/09",
      "phoneNumber": "592-950-7162",
      "email": "kcaitlin7t@spiegel.de",
      "homeAddress": "74584 Marquette Drive",
      "cityOrTown": "vancouver",
      "postalCode": "C6L2P6",
      "provinceTerritory": "British Columbia",
      "hasAdditionalTravellers": "No",
      "additionalTravellers": [],
      "nameOfAirportOrBorderCrossing": "OO6036",
      "nameOfBorderCrossing": "Bhutan",
      "arrivalDate": "2020/05/17",
      "arrivalCityOrTown": "Vancouver",
      "arrivalCountry": "Uruguay",
      "additionalCitiesAndCountries": [],
      "hasPlaceToStayForQuarantine": "Yes",
      "quarantineLocation": {
        "address": "122 Mosinee Road",
        "cityOrTown": "chilliwack",
        "provinceTerritory": "Manitoba",
        "postalCode": "G7O0L7",
        "phoneNumber": "778 469 3996",
        "typeOfPlace": "Private residence",
        "howToGetToPlace": "Private vehicle",
        "doesVulnerablePersonLiveThere": "No",
        "otherPeopleResiding": "No"
      },
      "isAbleToMakeNecessaryArrangements": "Yes",
      "doesConfirmToProvideInformationOnBehalfOfListedTravellers": true,
      "doesConfirmToCall811": true,
      "doesAttestInformationIsAccurate": true
    },
    {
      "confirmationNumber": "ABIHF60",
      "firstName": "Alejandra",
      "lastName": "Aery",
      "dateOfBirth": "2014/09/25",
      "phoneNumber": "769-287-7476",
      "email": "mbeningfielddp@auda.org.au",
      "homeAddress": "220 Mallard Court",
      "cityOrTown": "Burnaby",
      "postalCode": "V1L5R2",
      "provinceTerritory": "British Columbia",
      "hasAdditionalTravellers": "No",
      "additionalTravellers": [],
      "nameOfAirportOrBorderCrossing": "FR4708",
      "nameOfBorderCrossing": "Benin",
      "arrivalDate": "2020/05/17",
      "arrivalCityOrTown": "Vancouver",
      "arrivalCountry": "El Salvador",
      "additionalCitiesAndCountries": [],
      "hasPlaceToStayForQuarantine": "No",
      "quarantineLocation": {
        "address": "",
        "cityOrTown": "",
        "provinceTerritory": "",
        "postalCode": "",
        "phoneNumber": "",
        "typeOfPlace": "",
        "howToGetToPlace": "",
        "doesVulnerablePersonLiveThere": "",
        "otherPeopleResiding": "No"
      },
      "isAbleToMakeNecessaryArrangements": "Yes",
      "doesConfirmToProvideInformationOnBehalfOfListedTravellers": true,
      "doesConfirmToCall811": true,
      "doesAttestInformationIsAccurate": true
    },
    {
      "confirmationNumber": "AB9U5D7",
      "firstName": "Alejoa",
      "lastName": "Afield",
      "dateOfBirth": "1962/02/06",
      "phoneNumber": "(362) 8412860",
      "email": "fgioanjp@zimbio.com",
      "homeAddress": "724 Bartillon Junction",
      "cityOrTown": "Abboisford",
      "postalCode": "L7J1S7",
      "provinceTerritory": "British Columbia",
      "hasAdditionalTravellers": "No",
      "additionalTravellers": [],
      "nameOfAirportOrBorderCrossing": "BV0104",
      "nameOfBorderCrossing": "Jordan",
      "arrivalDate": "2020/05/17",
      "arrivalCityOrTown": "Prince George",
      "arrivalCountry": "Indonesia",
      "additionalCitiesAndCountries": [],
      "hasPlaceToStayForQuarantine": "Yes",
      "quarantineLocation": {
        "address": "43116 Pearson Parkway",
        "cityOrTown": "Surrey",
        "provinceTerritory": "Ontario",
        "postalCode": "U5A0N7",
        "phoneNumber": "163 353 5499",
        "typeOfPlace": "Other",
        "howToGetToPlace": "Private vehicle",
        "doesVulnerablePersonLiveThere": "Yes",
        "otherPeopleResiding": "No"
      },
      "isAbleToMakeNecessaryArrangements": "Yes",
      "doesConfirmToProvideInformationOnBehalfOfListedTravellers": true,
      "doesConfirmToCall811": true,
      "doesAttestInformationIsAccurate": true
    },
    {
      "confirmationNumber": "AB1TM6Z",
      "firstName": "Alexandre",
      "lastName": "Ahrens",
      "dateOfBirth": "2020/01/01",
      "phoneNumber": "933 835 9600",
      "email": "nyoulld2@google.ru",
      "homeAddress": "80028 Orin Point",
      "cityOrTown": "Surrey",
      "postalCode": "D9Q4S4",
      "provinceTerritory": "British Columbia",
      "hasAdditionalTravellers": "Yes",
      "additionalTravellers": [
        {
          "firstName": "Martie",
          "lastName": "Twopenny",
          "dateOfBirth": "1979/03/11"
        }
      ],
      "nameOfAirportOrBorderCrossing": "ZQ7256",
      "nameOfBorderCrossing": "Portugal",
      "arrivalDate": "2020/05/17",
      "arrivalCityOrTown": "Vancouver",
      "arrivalCountry": "Liberia",
      "additionalCitiesAndCountries": [
        {
          "cityOrTown": "Terrace",
          "country": "Poland"
        },
        {
          "cityOrTown": "Terrace",
          "country": "Poland"
        },
        {
          "cityOrTown": "Terrace",
          "country": "Poland"
        }
      ],
      "hasPlaceToStayForQuarantine": "Yes",
      "quarantineLocation": {
        "address": "02 Eagan Avenue",
        "cityOrTown": "Kelowna",
        "provinceTerritory": "Other",
        "postalCode": "V0Y9C2",
        "phoneNumber": "373 686 4812",
        "typeOfPlace": "Commercial (e.g. hotel)",
        "howToGetToPlace": "Private vehicle",
        "doesVulnerablePersonLiveThere": "No",
        "otherPeopleResiding": "No"
      },
      "isAbleToMakeNecessaryArrangements": "Yes",
      "doesConfirmToProvideInformationOnBehalfOfListedTravellers": true,
      "doesConfirmToCall811": true,
      "doesAttestInformationIsAccurate": true
    },
    {
      "confirmationNumber": "ABSR670",
      "firstName": "Dacey",
      "lastName": "Dickerline",
      "dateOfBirth": "1989/11/20",
      "phoneNumber": "(235) 1779047",
      "email": "",
      "homeAddress": "6919 Bunker Hill Crossing",
      "cityOrTown": "Abboisford",
      "postalCode": "L7J1S7",
      "provinceTerritory": "British Columbia",
      "hasAdditionalTravellers": "No",
      "additionalTravellers": [],
      "nameOfAirportOrBorderCrossing": "JM6107",
      "nameOfBorderCrossing": "Saint Vincent and the Grenadines",
      "arrivalDate": "2020/05/17",
      "arrivalCityOrTown": "Vancouver West",
      "arrivalCountry": "Kuwait",
      "additionalCitiesAndCountries": [],
      "hasPlaceToStayForQuarantine": "No",
      "quarantineLocation": {
        "address": "",
        "cityOrTown": "",
        "provinceTerritory": "",
        "postalCode": "",
        "phoneNumber": "",
        "typeOfPlace": "",
        "howToGetToPlace": "",
        "doesVulnerablePersonLiveThere": "",
        "otherPeopleResiding": "No"
      },
      "isAbleToMakeNecessaryArrangements": "Yes",
      "doesConfirmToProvideInformationOnBehalfOfListedTravellers": true,
      "doesConfirmToCall811": true,
      "doesAttestInformationIsAccurate": true
    },
    {
      "confirmationNumber": "ABYYML7",
      "firstName": "DÃ«bbie",
      "lastName": "Douglas",
      "dateOfBirth": "1972/08/29",
      "phoneNumber": "(672) 8230297",
      "email": "debbie@gmail.com",
      "homeAddress": "123 Baa Street",
      "cityOrTown": "Burnaby",
      "postalCode": "T7X0H3",
      "provinceTerritory": "British Columbia",
      "hasAdditionalTravellers": "No",
      "additionalTravellers": [],
      "nameOfAirportOrBorderCrossing": "NI7644",
      "nameOfBorderCrossing": "Saint Vincent and the Grenadines",
      "arrivalDate": "2020/05/15",
      "arrivalCityOrTown": "West Vancouver",
      "arrivalCountry": "Bangladesh",
      "additionalCitiesAndCountries": [
        {
          "cityOrTown": "Victoria",
          "country": "Trinidad and Tobago"
        },
        {
          "cityOrTown": "Victoria",
          "country": "Trinidad and Tobago"
        },
        {
          "cityOrTown": "Victoria",
          "country": "Trinidad and Tobago"
        }
      ],
      "hasPlaceToStayForQuarantine": "Yes",
      "quarantineLocation": {
        "address": "90661 Rowland Point",
        "cityOrTown": "burnaby",
        "provinceTerritory": "Alberta",
        "postalCode": "O5Q4F6",
        "phoneNumber": "770 930 3755",
        "typeOfPlace": "Other",
        "howToGetToPlace": "Other",
        "doesVulnerablePersonLiveThere": "Yes",
        "otherPeopleResiding": "No"
      },
      "isAbleToMakeNecessaryArrangements": "Yes",
      "doesConfirmToProvideInformationOnBehalfOfListedTravellers": true,
      "doesConfirmToCall811": true,
      "doesAttestInformationIsAccurate": true
    },
    {
      "confirmationNumber": "AB36AH7",
      "firstName": "Don",
      "lastName": "Dan Davidson",
      "dateOfBirth": "1979/09/28",
      "phoneNumber": "(293) 2371781",
      "email": "ddavidson@fakesite.com",
      "homeAddress": "876 Fake St.",
      "cityOrTown": "victoria",
      "postalCode": "V1V1V1",
      "provinceTerritory": "British Columbia",
      "hasAdditionalTravellers": "No",
      "additionalTravellers": [],
      "nameOfAirportOrBorderCrossing": "TR9499",
      "nameOfBorderCrossing": "Haiti",
      "arrivalDate": "2020/05/17",
      "arrivalCityOrTown": "invermere",
      "arrivalCountry": "Guinea-Bissau",
      "additionalCitiesAndCountries": [
        {
          "cityOrTown": "burnaby",
          "country": "Qatar"
        },
        {
          "cityOrTown": "burnaby",
          "country": "Qatar"
        },
        {
          "cityOrTown": "burnaby",
          "country": "Qatar"
        }
      ],
      "hasPlaceToStayForQuarantine": "Yes",
      "quarantineLocation": {
        "address": "643 Onsgard Parkway",
        "cityOrTown": "Richmond",
        "provinceTerritory": "Prince Edward Island",
        "postalCode": "T5J4I6",
        "phoneNumber": "540 354 9174",
        "typeOfPlace": "Commercial (e.g. hotel)",
        "howToGetToPlace": "Other",
        "doesVulnerablePersonLiveThere": "Yes",
        "otherPeopleResiding": "No"
      },
      "isAbleToMakeNecessaryArrangements": "Yes",
      "doesConfirmToProvideInformationOnBehalfOfListedTravellers": true,
      "doesConfirmToCall811": true,
      "doesAttestInformationIsAccurate": true
    },
    {
      "confirmationNumber": "AB11958",
      "firstName": "Donna-Joe",
      "lastName": "darwin",
      "dateOfBirth": "2007/05/11",
      "phoneNumber": "(597) 9202099",
      "email": "qwerty@facebook.ty",
      "homeAddress": "201-1111 Kingsland St.",
      "cityOrTown": "Vancouver",
      "postalCode": "V0V3MM",
      "provinceTerritory": "British Columbia",
      "hasAdditionalTravellers": "Yes",
      "additionalTravellers": [
        {
          "firstName": "Loy",
          "lastName": "Marvelley",
          "dateOfBirth": "1982/04/26"
        },
        {
          "firstName": "Loy",
          "lastName": "Marvelley",
          "dateOfBirth": "1982/04/26"
        },
        {
          "firstName": "Loy",
          "lastName": "Marvelley",
          "dateOfBirth": "1982/04/26"
        },
        {
          "firstName": "Loy",
          "lastName": "Marvelley",
          "dateOfBirth": "1982/04/26"
        },
        {
          "firstName": "Loy",
          "lastName": "Marvelley",
          "dateOfBirth": "1982/04/26"
        }
      ],
      "nameOfAirportOrBorderCrossing": "ED4158",
      "nameOfBorderCrossing": "Somalia",
      "arrivalDate": "2020/05/19",
      "arrivalCityOrTown": "Abbotspord",
      "arrivalCountry": "Grenada",
      "additionalCitiesAndCountries": [
        {
          "cityOrTown": "Winter Harbour",
          "country": "Comoros"
        },
        {
          "cityOrTown": "Winter Harbour",
          "country": "Comoros"
        },
        {
          "cityOrTown": "Winter Harbour",
          "country": "Comoros"
        }
      ],
      "hasPlaceToStayForQuarantine": "Yes",
      "quarantineLocation": {
        "address": "826 Thackeray Park",
        "cityOrTown": "Creston",
        "provinceTerritory": "Other",
        "postalCode": "K4Q2A1",
        "phoneNumber": "770 468 1686",
        "typeOfPlace": "Other",
        "howToGetToPlace": "Other",
        "doesVulnerablePersonLiveThere": "Yes",
        "otherPeopleResiding": "No"
      },
      "isAbleToMakeNecessaryArrangements": "Yes",
      "doesConfirmToProvideInformationOnBehalfOfListedTravellers": true,
      "doesConfirmToCall811": true,
      "doesAttestInformationIsAccurate": true
    },
    {
      "confirmationNumber": "ABF84C7",
      "firstName": "Ashton",
      "lastName": "Abcdef",
      "dateOfBirth": "2000/01/01",
      "phoneNumber": "614-886-9995",
      "email": "lwaywellip@pinterest.com",
      "homeAddress": "361 Superior Road",
      "cityOrTown": "Peachland",
      "postalCode": "X8E4X5",
      "provinceTerritory": "British Columbia",
      "hasAdditionalTravellers": "No",
      "additionalTravellers": [],
      "nameOfAirportOrBorderCrossing": "GL4788",
      "nameOfBorderCrossing": "Lithuania",
      "arrivalDate": "2020/05/15",
      "arrivalCityOrTown": "West Vancouver",
      "arrivalCountry": "Dominica",
      "additionalCitiesAndCountries": [
        {
          "cityOrTown": "Vernon",
          "country": "Dominica"
        },
        {
          "cityOrTown": "Vernon",
          "country": "Dominica"
        },
        {
          "cityOrTown": "Vernon",
          "country": "Dominica"
        }
      ],
      "hasPlaceToStayForQuarantine": "No",
      "quarantineLocation": {
        "address": "",
        "cityOrTown": "",
        "provinceTerritory": "",
        "postalCode": "",
        "phoneNumber": "",
        "typeOfPlace": "",
        "howToGetToPlace": "",
        "doesVulnerablePersonLiveThere": "",
        "otherPeopleResiding": "No"
      },
      "isAbleToMakeNecessaryArrangements": "Yes",
      "doesConfirmToProvideInformationOnBehalfOfListedTravellers": true,
      "doesConfirmToCall811": true,
      "doesAttestInformationIsAccurate": true
    },
    {
      "confirmationNumber": "AB49J9R",
      "firstName": "dave",
      "lastName": "Davis",
      "dateOfBirth": "2017/08/08",
      "phoneNumber": "316 140 9796",
      "email": "mpaskins30@geocities.jp",
      "homeAddress": "1577 Donald Park",
      "cityOrTown": "CHILLIWACK",
      "postalCode": "Q1V7M3",
      "provinceTerritory": "British Columbia",
      "hasAdditionalTravellers": "Yes",
      "additionalTravellers": [
        {
          "firstName": "Camella",
          "lastName": "Bulle",
          "dateOfBirth": "1970/08/29"
        }
      ],
      "nameOfAirportOrBorderCrossing": "ZI0111",
      "nameOfBorderCrossing": "Philippines",
      "arrivalDate": "2020/05/18",
      "arrivalCityOrTown": "Vancouver",
      "arrivalCountry": "Mauritius",
      "additionalCitiesAndCountries": [
        {
          "cityOrTown": "vancouver",
          "country": "Macedonia"
        }
      ],
      "hasPlaceToStayForQuarantine": "Yes",
      "quarantineLocation": {
        "address": "0575 Sherman Hill",
        "cityOrTown": "SURREY",
        "provinceTerritory": "QuÃ©bec",
        "postalCode": "E2K2E1",
        "phoneNumber": "677 392 5985",
        "typeOfPlace": "Other",
        "howToGetToPlace": "Taxi or rideshare",
        "doesVulnerablePersonLiveThere": "Yes",
        "otherPeopleResiding": "No"
      },
      "isAbleToMakeNecessaryArrangements": "Yes",
      "doesConfirmToProvideInformationOnBehalfOfListedTravellers": true,
      "doesConfirmToCall811": true,
      "doesAttestInformationIsAccurate": true
    },
    {
      "confirmationNumber": "ABF2112",
      "firstName": "Art",
      "lastName": "Andrews",
      "dateOfBirth": "1990/12/28",
      "phoneNumber": "658 513 6682",
      "email": "cdivella1@cmu.edu",
      "homeAddress": "9223 Hovde Drive",
      "cityOrTown": "SURREY",
      "postalCode": "H3P5X5",
      "provinceTerritory": "British Columbia",
      "hasAdditionalTravellers": "No",
      "additionalTravellers": [],
      "nameOfAirportOrBorderCrossing": "EV0397",
      "nameOfBorderCrossing": "Albania",
      "arrivalDate": "2020/05/17",
      "arrivalCityOrTown": "Surrey",
      "arrivalCountry": "Antigua and Barbuda",
      "additionalCitiesAndCountries": [
        {
          "cityOrTown": "vANCOUVER BC",
          "country": "Solomon Islands"
        },
        {
          "cityOrTown": "vANCOUVER BC",
          "country": "Solomon Islands"
        },
        {
          "cityOrTown": "vANCOUVER BC",
          "country": "Solomon Islands"
        }
      ],
      "hasPlaceToStayForQuarantine": "No",
      "quarantineLocation": {
        "address": "",
        "cityOrTown": "",
        "provinceTerritory": "",
        "postalCode": "",
        "phoneNumber": "",
        "typeOfPlace": "",
        "howToGetToPlace": "",
        "doesVulnerablePersonLiveThere": "",
        "otherPeopleResiding": "No"
      },
      "isAbleToMakeNecessaryArrangements": "Yes",
      "doesConfirmToProvideInformationOnBehalfOfListedTravellers": true,
      "doesConfirmToCall811": true,
      "doesAttestInformationIsAccurate": true
    },
    {
      "confirmationNumber": "AB9N44M",
      "firstName": "Ian",
      "lastName": "Igor",
      "dateOfBirth": "2010/08/26",
      "phoneNumber": "864-877-5396",
      "email": "hkearford1a@fc2.com",
      "homeAddress": "41 Coleman Plaza",
      "cityOrTown": "Richmond",
      "postalCode": "N7Z2D4",
      "provinceTerritory": "British Columbia",
      "hasAdditionalTravellers": "No",
      "additionalTravellers": [],
      "nameOfAirportOrBorderCrossing": "BE9521",
      "nameOfBorderCrossing": "Senegal",
      "arrivalDate": "1999/12/25",
      "arrivalCityOrTown": "Richmond",
      "arrivalCountry": "Algeria",
      "additionalCitiesAndCountries": [
        {
          "cityOrTown": "Coquitlam",
          "country": "Panama"
        }
      ],
      "hasPlaceToStayForQuarantine": "No",
      "quarantineLocation": {
        "address": "",
        "cityOrTown": "",
        "provinceTerritory": "",
        "postalCode": "",
        "phoneNumber": "",
        "typeOfPlace": "",
        "howToGetToPlace": "",
        "doesVulnerablePersonLiveThere": "",
        "otherPeopleResiding": "No"
      },
      "isAbleToMakeNecessaryArrangements": "Yes",
      "doesConfirmToProvideInformationOnBehalfOfListedTravellers": true,
      "doesConfirmToCall811": true,
      "doesAttestInformationIsAccurate": true
    },
    {
      "confirmationNumber": "AB8197G",
      "firstName": "Ingrid",
      "lastName": "Isaacs",
      "dateOfBirth": "1983/09/19",
      "phoneNumber": "(272) 6588148",
      "email": "zchillcu@csmonitor.com",
      "homeAddress": "51 Birchwood Drive",
      "cityOrTown": "victoria",
      "postalCode": "R4G4D4",
      "provinceTerritory": "British Columbia",
      "hasAdditionalTravellers": "No",
      "additionalTravellers": [],
      "nameOfAirportOrBorderCrossing": "BR6973",
      "nameOfBorderCrossing": "Norway",
      "arrivalDate": "2020/01/01",
      "arrivalCityOrTown": "Vancouver",
      "arrivalCountry": "Samoa",
      "additionalCitiesAndCountries": [
        {
          "cityOrTown": "surrey",
          "country": "Tunisia"
        },
        {
          "cityOrTown": "surrey",
          "country": "Tunisia"
        },
        {
          "cityOrTown": "surrey",
          "country": "Tunisia"
        }
      ],
      "hasPlaceToStayForQuarantine": "No",
      "quarantineLocation": {
        "address": "",
        "cityOrTown": "",
        "provinceTerritory": "",
        "postalCode": "",
        "phoneNumber": "",
        "typeOfPlace": "",
        "howToGetToPlace": "",
        "doesVulnerablePersonLiveThere": "",
        "otherPeopleResiding": "No"
      },
      "isAbleToMakeNecessaryArrangements": "Yes",
      "doesConfirmToProvideInformationOnBehalfOfListedTravellers": true,
      "doesConfirmToCall811": true,
      "doesAttestInformationIsAccurate": true
    },
    {
      "confirmationNumber": "ABH6PD2",
      "firstName": "Alayne",
      "lastName": "Looks",
      "dateOfBirth": "2018/02/05",
      "phoneNumber": "168-455-5589",
      "email": "sjewett8z@webeden.co.uk",
      "homeAddress": "57 Sycamore Circle",
      "cityOrTown": "vancouver",
      "postalCode": "L4C1O3",
      "provinceTerritory": "British Columbia",
      "hasAdditionalTravellers": "Yes",
      "additionalTravellers": [
        {
          "firstName": "Barbie",
          "lastName": "Danels",
          "dateOfBirth": "1997/10/30"
        },
        {
          "firstName": "Barbie",
          "lastName": "Danels",
          "dateOfBirth": "1997/10/30"
        },
        {
          "firstName": "Barbie",
          "lastName": "Danels",
          "dateOfBirth": "1997/10/30"
        }
      ],
      "nameOfAirportOrBorderCrossing": "UL7867",
      "nameOfBorderCrossing": "Myanmar (Burma)",
      "arrivalDate": "2020/05/18",
      "arrivalCityOrTown": "Coquitlam",
      "arrivalCountry": "Moldova",
      "additionalCitiesAndCountries": [
        {
          "cityOrTown": "LANGLEY",
          "country": "Marshall Islands"
        },
        {
          "cityOrTown": "LANGLEY",
          "country": "Marshall Islands"
        },
        {
          "cityOrTown": "LANGLEY",
          "country": "Marshall Islands"
        }
      ],
      "hasPlaceToStayForQuarantine": "No",
      "quarantineLocation": {
        "address": "",
        "cityOrTown": "",
        "provinceTerritory": "",
        "postalCode": "",
        "phoneNumber": "",
        "typeOfPlace": "",
        "howToGetToPlace": "",
        "doesVulnerablePersonLiveThere": "",
        "otherPeopleResiding": "No"
      },
      "isAbleToMakeNecessaryArrangements": "Yes",
      "doesConfirmToProvideInformationOnBehalfOfListedTravellers": true,
      "doesConfirmToCall811": true,
      "doesAttestInformationIsAccurate": true
    },
    {
      "confirmationNumber": "ABEO3DI",
      "firstName": "Invalid",
      "lastName": "Isaiah",
      "dateOfBirth": "1979/08/28",
      "phoneNumber": "(558) 1121257",
      "email": "lleathersiw@umn.edu",
      "homeAddress": "4072 Oriole Court",
      "cityOrTown": "Abboisford",
      "postalCode": "M5U3A3",
      "provinceTerritory": "British Columbia",
      "hasAdditionalTravellers": "No",
      "additionalTravellers": [],
      "nameOfAirportOrBorderCrossing": "BW7311",
      "nameOfBorderCrossing": "Fiji",
      "arrivalDate": "2020/06/08",
      "arrivalCityOrTown": "Coquitlam",
      "arrivalCountry": "Somalia",
      "additionalCitiesAndCountries": [
        {
          "cityOrTown": "Burnaby",
          "country": "Ireland"
        }
      ],
      "hasPlaceToStayForQuarantine": "No",
      "quarantineLocation": {
        "address": "",
        "cityOrTown": "",
        "provinceTerritory": "",
        "postalCode": "",
        "phoneNumber": "",
        "typeOfPlace": "",
        "howToGetToPlace": "",
        "doesVulnerablePersonLiveThere": "",
        "otherPeopleResiding": "No"
      },
      "isAbleToMakeNecessaryArrangements": "Yes",
      "doesConfirmToProvideInformationOnBehalfOfListedTravellers": true,
      "doesConfirmToCall811": true,
      "doesAttestInformationIsAccurate": true
    },
    {
      "confirmationNumber": "ABSF6CH",
      "firstName": "Adam",
      "lastName": "Ant",
      "dateOfBirth": "1957/09/23",
      "phoneNumber": "(877) 7379577",
      "email": "rpearneqb@accuweather.com",
      "homeAddress": "6554 Pleasure Terrace",
      "cityOrTown": "Burnaby",
      "postalCode": "L1D2G8",
      "provinceTerritory": "British Columbia",
      "hasAdditionalTravellers": "No",
      "additionalTravellers": [],
      "nameOfAirportOrBorderCrossing": "AJ9864",
      "nameOfBorderCrossing": "Mexico",
      "arrivalDate": "2020/05/17",
      "arrivalCityOrTown": "Chillinack",
      "arrivalCountry": "China",
      "additionalCitiesAndCountries": [
        {
          "cityOrTown": "New West Minster",
          "country": "Vatican City (Holy See)"
        }
      ],
      "hasPlaceToStayForQuarantine": "Yes",
      "quarantineLocation": {
        "address": "9658 Surrey Crossing",
        "cityOrTown": "Langley",
        "provinceTerritory": "Alberta",
        "postalCode": "K6Z3M7",
        "phoneNumber": "903 248 9279",
        "typeOfPlace": "Commercial (e.g. hotel)",
        "howToGetToPlace": "Taxi or rideshare",
        "doesVulnerablePersonLiveThere": "Yes",
        "otherPeopleResiding": "No"
      },
      "isAbleToMakeNecessaryArrangements": "Yes",
      "doesConfirmToProvideInformationOnBehalfOfListedTravellers": true,
      "doesConfirmToCall811": true,
      "doesAttestInformationIsAccurate": true
    },
    {
      "confirmationNumber": "AB49H80",
      "firstName": "Andy",
      "lastName": "Astronaut",
      "dateOfBirth": "1966/10/08",
      "phoneNumber": "(753) 3616921",
      "email": "nmealhamq9@deviantart.com",
      "homeAddress": "6 Longview Pass",
      "cityOrTown": "CHILLIWACK",
      "postalCode": "Q1V7M3",
      "provinceTerritory": "British Columbia",
      "hasAdditionalTravellers": "No",
      "additionalTravellers": [],
      "nameOfAirportOrBorderCrossing": "RT2409",
      "nameOfBorderCrossing": "Marshall Islands",
      "arrivalDate": "2020/05/16",
      "arrivalCityOrTown": "Port MacNeal",
      "arrivalCountry": "Argentina",
      "additionalCitiesAndCountries": [
        {
          "cityOrTown": "North",
          "country": "Fiji"
        },
        {
          "cityOrTown": "North",
          "country": "Fiji"
        },
        {
          "cityOrTown": "North",
          "country": "Fiji"
        },
        {
          "cityOrTown": "North",
          "country": "Fiji"
        }
      ],
      "hasPlaceToStayForQuarantine": "Yes",
      "quarantineLocation": {
        "address": "7214 Carey Crossing",
        "cityOrTown": "Langley",
        "provinceTerritory": "Newfoundland and Labrador",
        "postalCode": "P9Q1Q6",
        "phoneNumber": "106 107 2150",
        "typeOfPlace": "Private residence",
        "howToGetToPlace": "Private vehicle",
        "doesVulnerablePersonLiveThere": "No",
        "otherPeopleResiding": "No"
      },
      "isAbleToMakeNecessaryArrangements": "Yes",
      "doesConfirmToProvideInformationOnBehalfOfListedTravellers": true,
      "doesConfirmToCall811": true,
      "doesAttestInformationIsAccurate": true
    },
    {
      "confirmationNumber": "AB9YIL1",
      "firstName": "Tedd",
      "lastName": "Erley",
      "dateOfBirth": "1962/02/12",
      "phoneNumber": "388 931 6701",
      "email": "stayspell1y@ftc.gov",
      "homeAddress": "5705 Cascade Pass",
      "cityOrTown": "Abboisford",
      "postalCode": "P5C1P9",
      "provinceTerritory": "British Columbia",
      "hasAdditionalTravellers": "No",
      "additionalTravellers": [],
      "nameOfAirportOrBorderCrossing": "ER3809",
      "nameOfBorderCrossing": "Antigua and Barbuda",
      "arrivalDate": "2020/06/11",
      "arrivalCityOrTown": "surrey",
      "arrivalCountry": "Marshall Islands",
      "additionalCitiesAndCountries": [
        {
          "cityOrTown": "abbotsford",
          "country": "Malawi"
        },
        {
          "cityOrTown": "abbotsford",
          "country": "Malawi"
        },
        {
          "cityOrTown": "abbotsford",
          "country": "Malawi"
        }
      ],
      "hasPlaceToStayForQuarantine": "Yes",
      "quarantineLocation": {
        "address": "9 Columbus Street",
        "cityOrTown": "Surrey",
        "provinceTerritory": "British Columbia",
        "postalCode": "B0F4T2",
        "phoneNumber": "742 778 0479",
        "typeOfPlace": "Private residence",
        "howToGetToPlace": "Other",
        "doesVulnerablePersonLiveThere": "No",
        "otherPeopleResiding": "No"
      },
      "isAbleToMakeNecessaryArrangements": "Yes",
      "doesConfirmToProvideInformationOnBehalfOfListedTravellers": true,
      "doesConfirmToCall811": true,
      "doesAttestInformationIsAccurate": true
    }
  ]
}